Tutorial 5 - Space Launches
…
# Left join agencies to launches
launches_agencies <- left_join(???, ???, by = "???")

# Print launches_agencies
launches_agencies

# Answer

# Left join agencies to launches
launches_agencies <- left_join(launches, agencies, by = "agency")

# Print launches_agencies
launches_agencies

## # A tibble: 5,726 x 29
##    tag       JD launch_date launch_year type.x variant mission agency
##    <chr>  <dbl> <date>            <dbl> <chr>  <chr>   <chr>   <chr> 
##  1 1967 2.44e6 1967-06-29         1967 Thor  <NA>    Secor  US    
##  2 1967 2.44e6 1967-08-23         1967 Thor  <NA>    DAPP 3 US    
##  3 1967 2.44e6 1967-10-11         1967 Thor  <NA>    DAPP 4 US    
##  4 1968 2.44e6 1968-05-23         1968 Thor  <NA>    DAPP 5 US    
##  5 1968 2.44e6 1968-10-23         1968 Thor  <NA>    DAPP 6 US    
##  6 1969 2.44e6 1969-07-23         1969 Thor  <NA>    DAPP 7 US    
##  7 1970 2.44e6 1970-02-11         1970 Thor  <NA>    DAPP B US    
##  8 1970 2.44e6 1970-09-03         1970 Thor  <NA>    DAPP B US    
##  9 1971 2.44e6 1971-02-17         1971 Thor  <NA>    DAPP B US    
## 10 1971 2.44e6 1971-06-08         1971 Thor  <NA>    P70-1   US    
## #  with 5,716 more rows, and 21 more variables: state_code.x <chr>,
## #   category <chr>, agency_type.x <chr>, count <dbl>, ucode <chr>,
## #   state_code.y <chr>, type.y <chr>, class <chr>, tstart <chr>, tstop <chr>,
## #   short_name <chr>, name <chr>, location <chr>, longitude <chr>,
## #   latitude <chr>, error <chr>, parent <chr>, short_english_name <chr>,
## #   english_name <chr>, unicode_name <chr>, agency_type.y <chr>
…
# Join to retain only observations with matches
launches_agencies <- ???_join(launches, agencies, by = "agency")

# Print launches_agencies
launches_agencies

# Answer

# Inner join
launches_agencies <- inner_join(launches, agencies, by = "agency")

# Print launches_agencies
launches_agencies

## # A tibble: 950 x 29
##    tag       JD launch_date launch_year type.x variant mission agency
##    <chr>  <dbl> <date>            <dbl> <chr>  <chr>   <chr>   <chr> 
##  1 1984 2.45e6 1984-11-10         1984 Arian <NA>    Spacen AE    
##  2 1984 2.45e6 1984-05-23         1984 Arian <NA>    Spacen AE    
##  3 1984 2.45e6 1984-08-04         1984 Arian <NA>    ECS 2   AE    
##  4 1985 2.45e6 1985-02-08         1985 Arian <NA>    Arabsa AE    
##  5 1985 2.45e6 1985-05-08         1985 Arian <NA>    Gstar  AE    
##  6 1985 2.45e6 1985-07-02         1985 Arian <NA>    Giotto  AE    
##  7 1986 2.45e6 1986-02-22         1986 Arian <NA>    SPOT    AE    
##  8 1986 2.45e6 1986-03-28         1986 Arian <NA>    Gstar 2 AE    
##  9 1987 2.45e6 1987-09-16         1987 Arian <NA>    Aussat AE    
## 10 1987 2.45e6 1987-11-21         1987 Arian <NA>    TV-SAT  AE    
## #  with 940 more rows, and 21 more variables: state_code.x <chr>,
## #   category <chr>, agency_type.x <chr>, count <dbl>, ucode <chr>,
## #   state_code.y <chr>, type.y <chr>, class <chr>, tstart <chr>, tstop <chr>,
## #   short_name <chr>, name <chr>, location <chr>, longitude <chr>,
## #   latitude <chr>, error <chr>, parent <chr>, short_english_name <chr>,
## #   english_name <chr>, unicode_name <chr>, agency_type.y <chr>
…
